[
	{
		"name": "emco-v2-api-url-prefix",
		"tags": "emco-v2-api-url-prefix",
		"data_type": "string",
		"description": "The emco-v2-api-url-prefix url",
		"entry_schema": "string",
		"updated-by": "Aarna service <aarna_services@aarnanetworks.com>",
		"updatedBy": "Aarna service <aarna_services@aarnanetworks.com>",
		"definition": {
			"tags": "emco-v2-api-url-prefix",
			"name": "emco-v2-api-url-prefix",
			"property": {
				"description": "emco-v2-api-url-prefix string attribute",
				"type": "string"
			},
			"updated-by": "Aarna service <aarna_services@aarnanetworks.com>",
			"sources": {
				"input": {
					"type": "source-input",
					"properties": {}
				}
			}
		}
	},
    {
      "name": "git-url",
      "tags": "git-url",
      "data_type": "string",
      "description": "The git-url",
      "entry_schema": "string",
      "updated-by": "Aarna service <aarna_services@aarnanetworks.com>",
      "updatedBy": "Aarna service <aarna_services@aarnanetworks.com>",
      "definition": {
        "tags": "git-url",
        "name": "git-url",
        "property": {
          "description": "git-url string attribute",
          "type": "string"
        },
        "updated-by": "Aarna service <aarna_services@aarnanetworks.com>",
        "sources": {
          "input": {
            "type": "source-input",
            "properties": {}
          }
        }
      }
    },
    {
      "name": "git-access-token",
      "tags": "git-access-token",
      "data_type": "string",
      "description": "The git-access-token url",
      "entry_schema": "string",
      "updated-by": "Aarna service <aarna_services@aarnanetworks.com>",
      "updatedBy": "Aarna service <aarna_services@aarnanetworks.com>",
      "definition": {
        "tags": "git-access-token",
        "name": "git-access-token",
        "property": {
          "description": "git-access-token string attribute",
          "type": "string"
        },
        "updated-by": "Aarna service <aarna_services@aarnanetworks.com>",
        "sources": {
          "input": {
            "type": "source-input",
            "properties": {}
          }
        }
      }
    },
    {
      "name": "git-download-folder",
      "tags": "git-download-folder",
      "data_type": "string",
      "description": "The git-download-folder url",
      "entry_schema": "string",
      "updated-by": "Aarna service <aarna_services@aarnanetworks.com>",
      "updatedBy": "Aarna service <aarna_services@aarnanetworks.com>",
      "definition": {
        "tags": "git-download-folder",
        "name": "git-download-folder",
        "property": {
          "description": "git-download-folder string attribute",
          "type": "string"
        },
        "updated-by": "Aarna service <aarna_services@aarnanetworks.com>",
        "sources": {
          "input": {
            "type": "source-input",
            "properties": {}
          }
        }
      }
    },
	{
		"name": "emco-v2-cluster-provider-parameters",
		"tags": "emco-v2-cluster-provider-parameters",
		"data_type": "string",
		"description": "The emco-v2-cluster-provider-parameters input parameters",
		"entry_schema": "string",
		"updated-by": "Aarna service <aarna_services@aarnanetworks.com>",
		"updatedBy": "Aarna service <aarna_services@aarnanetworks.com>",
		"definition": {
			"tags": "emco-v2-cluster-provider-parameters",
			"name": "emco-v2-cluster-provider-parameters",
			"property": {
				"description": "emco-v2-cluster-provider-parameters string attribute",
				"type": "string"
			},
			"updated-by": "Aarna service <aarna_services@aarnanetworks.com>",
			"sources": {
				"input": {
					"type": "source-input",
					"properties": {}
				}
			}
		}
	},
	{
		"name": "emco-v2-cluster-parameters",
		"tags": "emco-v2-cluster-parameters",
		"data_type": "string",
		"description": "The target emco-v2-cluster-parameters for the git",
		"entry_schema": "string",
		"updated-by": "Aarna service <aarna_services@aarnanetworks.com>",
		"updatedBy": "Aarna service <aarna_services@aarnanetworks.com>",
		"definition": {
			"tags": "emco-v2-cluster-parameters",
			"name": "emco-v2-cluster-parameters",
			"property": {
				"description": "emco-v2-cluster-parameters string attribute",
				"type": "string"
			},
			"updated-by": "Aarna service <aarna_services@aarnanetworks.com>",
			"sources": {
				"input": {
					"type": "source-input",
					"properties": {}
				}
			}
		}
	},
	{
		"name": "emco-v2-cluster-label-parameters",
		"tags": "emco-v2-cluster-label-parameters",
		"data_type": "string",
		"description": "The emco-v2-cluster-label-parameters input parameters",
		"entry_schema": "string",
		"updated-by": "Aarna service <aarna_services@aarnanetworks.com>",
		"updatedBy": "Aarna service <aarna_services@aarnanetworks.com>",
		"definition": {
			"tags": "emco-v2-cluster-label-parameters",
			"name": "emco-v2-cluster-label-parameters",
			"property": {
				"description": "emco-v2-cluster-label-parameters string attribute",
				"type": "string"
			},
			"updated-by": "Aarna service <aarna_services@aarnanetworks.com>",
			"sources": {
				"input": {
					"type": "source-input",
					"properties": {}
				}
			}
		}
	},
   {
		"name": "emco-v2-cluster-key-value-parameters",
		"tags": "emco-v2-cluster-key-value-parameters",
		"data_type": "string",
		"description": "The emco-v2-cluster-key-value-parameters parameters",
		"entry_schema": "string",
		"updated-by": "Aarna service <aarna_services@aarnanetworks.com>",
		"updatedBy": "Aarna service <aarna_services@aarnanetworks.com>",
		"definition": {
			"tags": "emco-v2-cluster-key-value-parameters",
			"name": "emco-v2-cluster-key-value-parameters",
			"property": {
				"description": "emco-v2-cluster-key-value-parameters string attribute",
				"type": "string"
			},
			"updated-by": "Aarna service <aarna_services@aarnanetworks.com>",
			"sources": {
				"input": {
					"type": "source-input",
					"properties": {}
				}
			}
		}
	}
]
