{
	"metadata": {
		"template_author": "aarna_services",
		"author-email": "aarna_services@aarnanetworks.com",
		"template_name": "ansible-playbook-executor",
		"template_version": "1.0.0",
		"template_tags": "ansible-playbook-executor, ansible, cluster"
	},
	"dsl_definitions": {
		"py-executor": {
			"type": "token-auth",
			"host": {
				"get_input": "cds-py-exec-pod-ip"
			},
			"port": "50052",
			"token": "Y2NzZGthcHBzOmNjc2RrYXBwcw=="
		},
		"parameters": {
			"input-params": {
				"get_input": "input-params"
			},
			"cds-py-exec-pod-ip": {
				"get_input": "cds-py-exec-pod-ip"
			},
			"py-exec-grcp-timeout": {
				"get_input": "py-exec-grcp-timeout"
			},
			"workflow-name": {
                                "get_input": "workflow-name"
                        },
			"skip-input-params-keys-validation": {
				"get_input": "skip-input-params-keys-validation"
			}
		}
	},
	"topology_template": {
		"workflows": {
			"execute-ansible-playbook": {
				"steps": {
					"execute-script": {
						"description": "Execute Remote Python Script",
						"target": "execute-ansible-executor"
					}
				},
				"inputs": {
					"input-params": {
						"required": true,
						"type": "json"
					},
					"cds-py-exec-pod-ip": {
						"required": true,
						"type": "string"
					},
					"py-exec-grcp-timeout": {
						"required": true,
						"type": "string"
					},
					"workflow-name": {
						"required": true,
						"type": "string"
					},
					"skip-input-params-keys-validation": {
						"required": true,
						"type": "json"
				        }
				},
				"outputs": {
					"status": {
						"type": "string",
						"value": {
							"get_attribute": [
								"execute-ansible-executor",
								"status"
							]
						}
					},
					"response-data": {
						"type": "json",
						"value": {
							"get_attribute": [
								"execute-ansible-executor",
								"response-data"
							]
						}
					}
				}
			}
		},
		"node_templates": {
			"execute-ansible-executor": {
				"type": "component-remote-script-executor",
				"interfaces": {
					"ComponentRemoteScriptExecutor": {
						"operations": {
							"process": {
								"inputs": {
									"selector": "*py-executor",
									"blueprint-name": "ansible-playbook-executor",
									"blueprint-version": "1.0.0",
									"blueprint-action": "GenericAnsibleExecutor",
									"timeout": {
										"get_input": "py-exec-grcp-timeout"
									},
									"request-data": "*parameters"
								}
							}
						}
					}
				}
			}
		}
	}
}
